%YAML 1.1
%TAG !u! tag:unity3d.com,2011:
--- !u!319 &31900000
AvatarMask:
  m_ObjectHideFlags: 0
  m_CorrespondingSourceObject: {fileID: 0}
  m_PrefabInstance: {fileID: 0}
  m_PrefabAsset: {fileID: 0}
  m_Name: RiderBottom
  m_Mask: 01000000000000000000000001000000010000000000000000000000000000000000000001000000010000000000000000000000
  m_Elements:
  - m_Path: 
    m_Weight: 1
  - m_Path: Bandana
    m_Weight: 1
  - m_Path: CowBoy
    m_Weight: 1
  - m_Path: R_CG
    m_Weight: 1
  - m_Path: R_CG/R_Pelvis
    m_Weight: 1
  - m_Path: R_CG/R_Pelvis/R_L Thigh
    m_Weight: 1
  - m_Path: R_CG/R_Pelvis/R_L Thigh/R_L Calf
    m_Weight: 1
  - m_Path: R_CG/R_Pelvis/R_L Thigh/R_L Calf/R_L Foot
    m_Weight: 1
  - m_Path: R_CG/R_Pelvis/R_L Thigh/R_L Calf/R_L Foot/R_L Toe0
    m_Weight: 1
  - m_Path: R_CG/R_Pelvis/R_R Thigh
    m_Weight: 1
  - m_Path: R_CG/R_Pelvis/R_R Thigh/R_R Calf
    m_Weight: 1
  - m_Path: R_CG/R_Pelvis/R_R Thigh/R_R Calf/R_R Foot
    m_Weight: 1
  - m_Path: R_CG/R_Pelvis/R_R Thigh/R_R Calf/R_R Foot/R_R Toe0
    m_Weight: 1
  - m_Path: R_CG/R_Pelvis/R_Spine
    m_Weight: 1
  - m_Path: R_CG/R_Pelvis/R_Spine/Pistol 01
    m_Weight: 1
  - m_Path: R_CG/R_Pelvis/R_Spine/Pistol 02
    m_Weight: 1
  - m_Path: R_CG/R_Pelvis/R_Spine/R_Spine1
    m_Weight: 1
  - m_Path: R_CG/R_Pelvis/R_Spine/R_Spine1/R_Spine2
    m_Weight: 1
  - m_Path: R_CG/R_Pelvis/R_Spine/R_Spine1/R_Spine2/R_L Clavicle
    m_Weight: 1
  - m_Path: R_CG/R_Pelvis/R_Spine/R_Spine1/R_Spine2/R_L Clavicle/R_L UpperArm
    m_Weight: 1
  - m_Path: R_CG/R_Pelvis/R_Spine/R_Spine1/R_Spine2/R_L Clavicle/R_L UpperArm/R_L
      Forearm
    m_Weight: 1
  - m_Path: R_CG/R_Pelvis/R_Spine/R_Spine1/R_Spine2/R_L Clavicle/R_L UpperArm/R_L
      Forearm/R_L Hand
    m_Weight: 1
  - m_Path: R_CG/R_Pelvis/R_Spine/R_Spine1/R_Spine2/R_L Clavicle/R_L UpperArm/R_L
      Forearm/R_L Hand/R_L Finger0
    m_Weight: 1
  - m_Path: R_CG/R_Pelvis/R_Spine/R_Spine1/R_Spine2/R_L Clavicle/R_L UpperArm/R_L
      Forearm/R_L Hand/R_L Finger0/R_L Finger01
    m_Weight: 1
  - m_Path: R_CG/R_Pelvis/R_Spine/R_Spine1/R_Spine2/R_L Clavicle/R_L UpperArm/R_L
      Forearm/R_L Hand/R_L Finger0/R_L Finger01/R_L Finger02
    m_Weight: 1
  - m_Path: R_CG/R_Pelvis/R_Spine/R_Spine1/R_Spine2/R_L Clavicle/R_L UpperArm/R_L
      Forearm/R_L Hand/R_L Finger1
    m_Weight: 1
  - m_Path: R_CG/R_Pelvis/R_Spine/R_Spine1/R_Spine2/R_L Clavicle/R_L UpperArm/R_L
      Forearm/R_L Hand/R_L Finger1/R_L Finger11
    m_Weight: 1
  - m_Path: R_CG/R_Pelvis/R_Spine/R_Spine1/R_Spine2/R_L Clavicle/R_L UpperArm/R_L
      Forearm/R_L Hand/R_L Finger1/R_L Finger11/R_L Finger12
    m_Weight: 1
  - m_Path: R_CG/R_Pelvis/R_Spine/R_Spine1/R_Spine2/R_L Clavicle/R_L UpperArm/R_L
      Forearm/R_L Hand/R_L Finger2
    m_Weight: 1
  - m_Path: R_CG/R_Pelvis/R_Spine/R_Spine1/R_Spine2/R_L Clavicle/R_L UpperArm/R_L
      Forearm/R_L Hand/R_L Finger2/R_L Finger21
    m_Weight: 1
  - m_Path: R_CG/R_Pelvis/R_Spine/R_Spine1/R_Spine2/R_L Clavicle/R_L UpperArm/R_L
      Forearm/R_L Hand/R_L Finger2/R_L Finger21/R_L Finger22
    m_Weight: 1
  - m_Path: R_CG/R_Pelvis/R_Spine/R_Spine1/R_Spine2/R_L Clavicle/R_L UpperArm/R_L
      Forearm/R_L Hand/R_L Finger3
    m_Weight: 1
  - m_Path: R_CG/R_Pelvis/R_Spine/R_Spine1/R_Spine2/R_L Clavicle/R_L UpperArm/R_L
      Forearm/R_L Hand/R_L Finger3/R_L Finger31
    m_Weight: 1
  - m_Path: R_CG/R_Pelvis/R_Spine/R_Spine1/R_Spine2/R_L Clavicle/R_L UpperArm/R_L
      Forearm/R_L Hand/R_L Finger3/R_L Finger31/R_L Finger32
    m_Weight: 1
  - m_Path: R_CG/R_Pelvis/R_Spine/R_Spine1/R_Spine2/R_L Clavicle/R_L UpperArm/R_L
      Forearm/R_L Hand/R_L Finger4
    m_Weight: 1
  - m_Path: R_CG/R_Pelvis/R_Spine/R_Spine1/R_Spine2/R_L Clavicle/R_L UpperArm/R_L
      Forearm/R_L Hand/R_L Finger4/R_L Finger41
    m_Weight: 1
  - m_Path: R_CG/R_Pelvis/R_Spine/R_Spine1/R_Spine2/R_L Clavicle/R_L UpperArm/R_L
      Forearm/R_L Hand/R_L Finger4/R_L Finger41/R_L Finger42
    m_Weight: 1
  - m_Path: R_CG/R_Pelvis/R_Spine/R_Spine1/R_Spine2/R_Neck
    m_Weight: 1
  - m_Path: R_CG/R_Pelvis/R_Spine/R_Spine1/R_Spine2/R_Neck/R_Head
    m_Weight: 1
  - m_Path: R_CG/R_Pelvis/R_Spine/R_Spine1/R_Spine2/R_R Clavicle
    m_Weight: 1
  - m_Path: R_CG/R_Pelvis/R_Spine/R_Spine1/R_Spine2/R_R Clavicle/R_R UpperArm
    m_Weight: 1
  - m_Path: R_CG/R_Pelvis/R_Spine/R_Spine1/R_Spine2/R_R Clavicle/R_R UpperArm/R_R
      Forearm
    m_Weight: 1
  - m_Path: R_CG/R_Pelvis/R_Spine/R_Spine1/R_Spine2/R_R Clavicle/R_R UpperArm/R_R
      Forearm/R_R Hand
    m_Weight: 1
  - m_Path: R_CG/R_Pelvis/R_Spine/R_Spine1/R_Spine2/R_R Clavicle/R_R UpperArm/R_R
      Forearm/R_R Hand/R_R Finger0
    m_Weight: 1
  - m_Path: R_CG/R_Pelvis/R_Spine/R_Spine1/R_Spine2/R_R Clavicle/R_R UpperArm/R_R
      Forearm/R_R Hand/R_R Finger0/R_R Finger01
    m_Weight: 1
  - m_Path: R_CG/R_Pelvis/R_Spine/R_Spine1/R_Spine2/R_R Clavicle/R_R UpperArm/R_R
      Forearm/R_R Hand/R_R Finger0/R_R Finger01/R_R Finger02
    m_Weight: 1
  - m_Path: R_CG/R_Pelvis/R_Spine/R_Spine1/R_Spine2/R_R Clavicle/R_R UpperArm/R_R
      Forearm/R_R Hand/R_R Finger1
    m_Weight: 1
  - m_Path: R_CG/R_Pelvis/R_Spine/R_Spine1/R_Spine2/R_R Clavicle/R_R UpperArm/R_R
      Forearm/R_R Hand/R_R Finger1/R_R Finger11
    m_Weight: 1
  - m_Path: R_CG/R_Pelvis/R_Spine/R_Spine1/R_Spine2/R_R Clavicle/R_R UpperArm/R_R
      Forearm/R_R Hand/R_R Finger1/R_R Finger11/R_R Finger12
    m_Weight: 1
  - m_Path: R_CG/R_Pelvis/R_Spine/R_Spine1/R_Spine2/R_R Clavicle/R_R UpperArm/R_R
      Forearm/R_R Hand/R_R Finger2
    m_Weight: 1
  - m_Path: R_CG/R_Pelvis/R_Spine/R_Spine1/R_Spine2/R_R Clavicle/R_R UpperArm/R_R
      Forearm/R_R Hand/R_R Finger2/R_R Finger21
    m_Weight: 1
  - m_Path: R_CG/R_Pelvis/R_Spine/R_Spine1/R_Spine2/R_R Clavicle/R_R UpperArm/R_R
      Forearm/R_R Hand/R_R Finger2/R_R Finger21/R_R Finger22
    m_Weight: 1
  - m_Path: R_CG/R_Pelvis/R_Spine/R_Spine1/R_Spine2/R_R Clavicle/R_R UpperArm/R_R
      Forearm/R_R Hand/R_R Finger3
    m_Weight: 1
  - m_Path: R_CG/R_Pelvis/R_Spine/R_Spine1/R_Spine2/R_R Clavicle/R_R UpperArm/R_R
      Forearm/R_R Hand/R_R Finger3/R_R Finger31
    m_Weight: 1
  - m_Path: R_CG/R_Pelvis/R_Spine/R_Spine1/R_Spine2/R_R Clavicle/R_R UpperArm/R_R
      Forearm/R_R Hand/R_R Finger3/R_R Finger31/R_R Finger32
    m_Weight: 1
  - m_Path: R_CG/R_Pelvis/R_Spine/R_Spine1/R_Spine2/R_R Clavicle/R_R UpperArm/R_R
      Forearm/R_R Hand/R_R Finger4
    m_Weight: 1
  - m_Path: R_CG/R_Pelvis/R_Spine/R_Spine1/R_Spine2/R_R Clavicle/R_R UpperArm/R_R
      Forearm/R_R Hand/R_R Finger4/R_R Finger41
    m_Weight: 1
  - m_Path: R_CG/R_Pelvis/R_Spine/R_Spine1/R_Spine2/R_R Clavicle/R_R UpperArm/R_R
      Forearm/R_R Hand/R_R Finger4/R_R Finger41/R_R Finger42
    m_Weight: 1
